Introduction to data summarizing and visualization
…
# Calculate mean and standard deviation for each species separately
summary_stats <- subset_data %>%
  # make a separate group of data for each Common_Name
  group_by(Common_Name) %>%
  # calculate the mean and standard deviation of Percent_Cover and store them 
  #    in columns called "mean_cover" and "sd_cover" respectively
  summarize(mean_cover = mean(Percent_Cover),
            sd_cover = sd(Percent_Cover))

We can see these summary stats by typing the variable name, summary_stats into the R console:

summary_stats

## # A tibble: 32 x 3
##    Common_Name      mean_cover sd_cover
##    <fct>                 <dbl>    <dbl>
##  1 Bermudagrass           8        0   
##  2 big sacaton           13.6     21.7 
##  3 bristlegrass           1.54     1.29
##  4 broomcorn millet       3       NA   
##  5 bush muhly            14.3     11.3 
##  6 cane bluestem          0.5     NA   
##  7 carelessweed          20.9     18.7 
##  8 catclaw acacia        19.2     17.5 
##  9 catclaw mimosa         1.75     1.77
## 10 cliff muhly           13        7.07
## #  with 22 more rows
…
